%YAML 1.1
%TAG !u! tag:unity3d.com,2011:
--- !u!1 &100000
GameObject:
  m_ObjectHideFlags: 0
  m_CorrespondingSourceObject: {fileID: 0}
  m_PrefabInstance: {fileID: 0}
  m_PrefabAsset: {fileID: 0}
  serializedVersion: 6
  m_Component:
  - component: {fileID: 400002}
  - component: {fileID: 21200000}
  m_Layer: 0
  m_Name: 3ReelCageRetro
  m_TagString: Untagged
  m_Icon: {fileID: 0}
  m_NavMeshLayer: 0
  m_StaticEditorFlags: 0
  m_IsActive: 1
--- !u!4 &400002
Transform:
  m_ObjectHideFlags: 0
  m_CorrespondingSourceObject: {fileID: 0}
  m_PrefabInstance: {fileID: 0}
  m_PrefabAsset: {fileID: 0}
  m_GameObject: {fileID: 100000}
  m_LocalRotation: {x: 0, y: 0, z: 0, w: 1}
  m_LocalPosition: {x: 0, y: 0, z: 0}
  m_LocalScale: {x: 1, y: 1, z: 1}
  m_Children: []
  m_Father: {fileID: 400000}
  m_RootOrder: 0
  m_LocalEulerAnglesHint: {x: 0, y: 0, z: 0}
--- !u!212 &21200000
SpriteRenderer:
  m_ObjectHideFlags: 0
  m_CorrespondingSourceObject: {fileID: 0}
  m_PrefabInstance: {fileID: 0}
  m_PrefabAsset: {fileID: 0}
  m_GameObject: {fileID: 100000}
  m_Enabled: 1
  m_CastShadows: 0
  m_ReceiveShadows: 0
  m_DynamicOccludee: 1
  m_MotionVectors: 1
  m_LightProbeUsage: 0
  m_ReflectionProbeUsage: 0
  m_RayTracingMode: 0
  m_RenderingLayerMask: 1
  m_RendererPriority: 0
  m_Materials:
  - {fileID: 10754, guid: 0000000000000000f000000000000000, type: 0}
  m_StaticBatchInfo:
    firstSubMesh: 0
    subMeshCount: 0
  m_StaticBatchRoot: {fileID: 0}
  m_ProbeAnchor: {fileID: 0}
  m_LightProbeVolumeOverride: {fileID: 0}
  m_ScaleInLightmap: 1
  m_ReceiveGI: 1
  m_PreserveUVs: 0
  m_IgnoreNormalsForChartDetection: 0
  m_ImportantGI: 0
  m_StitchLightmapSeams: 1
  m_SelectedEditorRenderState: 0
  m_MinimumChartSize: 4
  m_AutoUVMaxDistance: 0.5
  m_AutoUVMaxAngle: 89
  m_LightmapParameters: {fileID: 0}
  m_SortingLayerID: 0
  m_SortingLayer: 0
  m_SortingOrder: 1
  m_Sprite: {fileID: 21300000, guid: 7b952e7e4f5f92349add995808ae8750, type: 3}
  m_Color: {r: 1, g: 1, b: 1, a: 1}
  m_FlipX: 0
  m_FlipY: 0
  m_DrawMode: 0
  m_Size: {x: 1, y: 1}
  m_AdaptiveModeThreshold: 0.5
  m_SpriteTileMode: 0
  m_WasSpriteAssigned: 1
  m_MaskInteraction: 0
  m_SpriteSortPoint: 0
--- !u!1 &100002
GameObject:
  m_ObjectHideFlags: 0
  m_CorrespondingSourceObject: {fileID: 0}
  m_PrefabInstance: {fileID: 0}
  m_PrefabAsset: {fileID: 0}
  serializedVersion: 6
  m_Component:
  - component: {fileID: 400000}
  - component: {fileID: 11400010}
  - component: {fileID: 11400000}
  - component: {fileID: 11400004}
  - component: {fileID: 11400006}
  - component: {fileID: 11400008}
  - component: {fileID: 11400012}
  - component: {fileID: 11400014}
  m_Layer: 0
  m_Name: 3ReelRetroSlot2D
  m_TagString: Untagged
  m_Icon: {fileID: 0}
  m_NavMeshLayer: 0
  m_StaticEditorFlags: 0
  m_IsActive: 1
--- !u!4 &400000
Transform:
  m_ObjectHideFlags: 0
  m_CorrespondingSourceObject: {fileID: 0}
  m_PrefabInstance: {fileID: 0}
  m_PrefabAsset: {fileID: 0}
  m_GameObject: {fileID: 100002}
  m_LocalRotation: {x: 0, y: 0, z: 0, w: 1}
  m_LocalPosition: {x: 0, y: 0, z: 0}
  m_LocalScale: {x: 1, y: 1, z: 1}
  m_Children:
  - {fileID: 400002}
  m_Father: {fileID: 0}
  m_RootOrder: 0
  m_LocalEulerAnglesHint: {x: 0, y: 0, z: 0}
--- !u!114 &11400010
MonoBehaviour:
  m_ObjectHideFlags: 0
  m_CorrespondingSourceObject: {fileID: 0}
  m_PrefabInstance: {fileID: 0}
  m_PrefabAsset: {fileID: 0}
  m_GameObject: {fileID: 100002}
  m_Enabled: 1
  m_EditorHideFlags: 0
  m_Script: {fileID: 11500000, guid: 4b106581ffc16954ea516e841078f675, type: 3}
  m_Name: 
  m_EditorClassIdentifier: 
  debugMode: 1
  activeRNG: 0
  reelHeight: 5
  reelIndent: 1
  numberOfReels: 3
  horizontalReelPaddingPercent: 0
  verticalSymbolPaddingPercent: 0
  spinTime: 1
  spinTimeIncPerReel: 0.5
  spinTimeScatterAnticipation: 0.5
  spinningSpeed: 0.05
  easeOutTime: 0.4
  reelEase: 24
  reelCenter: {fileID: 0}
  usePool: 1
  symbolBgPrefabs:
  - {fileID: 0}
  - {fileID: 0}
  - {fileID: 0}
  - {fileID: 0}
  - {fileID: 0}
  - {fileID: 0}
  - {fileID: 0}
  - {fileID: 0}
  - {fileID: 0}
  - {fileID: 0}
  symbolPrefabs:
  - {fileID: 100000, guid: a725f5e5c17642a4eb8f04ff50ad6fca, type: 3}
  - {fileID: 100000, guid: 9767602c00d387647b3e4b6ee62d3009, type: 3}
  - {fileID: 100000, guid: 18115aff561ac5747b8b820d534b657e, type: 3}
  - {fileID: 100000, guid: 67c6effac2375354991b65d17118d373, type: 3}
  - {fileID: 100000, guid: 010474819d49a0a48ad9d3318ce2ff32, type: 3}
  - {fileID: 100000, guid: 23180c0492913b5478c7457f6ed1f047, type: 3}
  - {fileID: 100000, guid: 16a85619159e2fc40a55a9920397bb3c, type: 3}
  - {fileID: 100000, guid: 9700cb7fe2fc65e479704613fac3f7e5, type: 3}
  - {fileID: 100000, guid: 658f06807679e3749a6fc0c79fc61791, type: 3}
  - {fileID: 100000, guid: 7e82de0aac123764294fd29f39614a0b, type: 3}
  symbolInfo:
  - active: 1
    link: 0
    linkName: 
    linked: 0
    linkPosition: 0
    isWild: 0
    clampPerReel: 0
    clampTotal: 0
    symbolIndex: 0
    perReelFrequency: 0
  - active: 1
    link: 0
    linkName: 
    linked: 0
    linkPosition: 0
    isWild: 0
    clampPerReel: 0
    clampTotal: 0
    symbolIndex: 0
    perReelFrequency: 0
  - active: 1
    link: 0
    linkName: 
    linked: 0
    linkPosition: 0
    isWild: 0
    clampPerReel: 0
    clampTotal: 0
    symbolIndex: 0
    perReelFrequency: 0
  - active: 1
    link: 0
    linkName: 
    linked: 0
    linkPosition: 0
    isWild: 0
    clampPerReel: 0
    clampTotal: 0
    symbolIndex: 0
    perReelFrequency: 0
  - active: 1
    link: 0
    linkName: 
    linked: 0
    linkPosition: 0
    isWild: 0
    clampPerReel: 0
    clampTotal: 0
    symbolIndex: 0
    perReelFrequency: 0
  - active: 1
    link: 0
    linkName: 
    linked: 0
    linkPosition: 0
    isWild: 0
    clampPerReel: 0
    clampTotal: 0
    symbolIndex: 0
    perReelFrequency: 0
  - active: 1
    link: 0
    linkName: 
    linked: 0
    linkPosition: 0
    isWild: 0
    clampPerReel: 0
    clampTotal: 0
    symbolIndex: 0
    perReelFrequency: 0
  - active: 1
    link: 0
    linkName: 
    linked: 0
    linkPosition: 0
    isWild: 0
    clampPerReel: 0
    clampTotal: 0
    symbolIndex: 0
    perReelFrequency: 0
  - active: 1
    link: 0
    linkName: 
    linked: 0
    linkPosition: 0
    isWild: 0
    clampPerReel: 0
    clampTotal: 0
    symbolIndex: 0
    perReelFrequency: 0
  - active: 1
    link: 0
    linkName: 
    linked: 0
    linkPosition: 0
    isWild: 0
    clampPerReel: 0
    clampTotal: 0
    symbolIndex: 0
    perReelFrequency: 0
  displayLineBoxes: 1
  lineboxPrefab: {fileID: 0}
  winboxPrefabs:
  - {fileID: 100000, guid: bc021f9624b8bf240b4b57c31600787c, type: 3}
  - {fileID: 100000, guid: bc021f9624b8bf240b4b57c31600787c, type: 3}
  - {fileID: 100000, guid: bc021f9624b8bf240b4b57c31600787c, type: 3}
  - {fileID: 100000, guid: bc021f9624b8bf240b4b57c31600787c, type: 3}
  - {fileID: 100000, guid: bc021f9624b8bf240b4b57c31600787c, type: 3}
  - {fileID: 100000, guid: bc021f9624b8bf240b4b57c31600787c, type: 3}
  - {fileID: 100000, guid: bc021f9624b8bf240b4b57c31600787c, type: 3}
  - {fileID: 100000, guid: bc021f9624b8bf240b4b57c31600787c, type: 3}
  - {fileID: 100000, guid: bc021f9624b8bf240b4b57c31600787c, type: 3}
  - {fileID: 100000, guid: bc021f9624b8bf240b4b57c31600787c, type: 3}
  reelFrequencies:
  - freq: 010000000100000001000000
  - freq: 010000000100000001000000
  - freq: 010000000100000001000000
  - freq: 010000000100000001000000
  - freq: 010000000100000001000000
  - freq: 010000000100000001000000
  - freq: 010000000100000001000000
  - freq: 010000000100000001000000
  - freq: 010000000100000001000000
  - freq: 010000000100000001000000
  symbolFrequencies: 03000000030000000300000003000000030000000300000003000000030000000300000003000000
  symbolSetNames:
  - Any Bar
  - Any Seven
  - Any Suit
  edsave:
    autoCompute: 0
    returnPercent: 0
    returnTotalWon: 0
    returnTotalBet: 0
    returnData: 
    returnPercentItterations: 10000
    showBasicSettingsPanel: 1
    showSymbolSetupPanel: 1
    symbolDeclarations: 0
    showOccurences: 0
    showSymbolSetsPanel: 1
    showLinesSetupPanel: 0
    showReturnPanel: 0
    showNotificationsPanel: 1
  betsPerLine:
  - value: 1
    canBet: 1
  - value: 5
    canBet: 1
  symbolSets:
  - typeofSet: 0
    symbols: 070000000800000009000000
    scatterCount: 0
    allowWilds: 1
  - typeofSet: 0
    symbols: 040000000500000006000000
    scatterCount: 0
    allowWilds: 1
  - typeofSet: 0
    symbols: 00000000010000000200000003000000
    scatterCount: 0
    allowWilds: 1
  setPays:
  - pays: 000000000100000005000000
    anticipate: 
    paySound: {fileID: 0}
    anticipationSound: {fileID: 0}
  - pays: 00000000020000000a000000
    anticipate: 
    paySound: {fileID: 0}
    anticipationSound: {fileID: 0}
  - pays: 000000000100000004000000
    anticipate: 
    paySound: {fileID: 0}
    anticipationSound: {fileID: 0}
  lines:
  - positions: 020000000200000002000000
  - positions: 010000000100000001000000
  - positions: 030000000300000003000000
  - positions: 020000000300000002000000
  - positions: 020000000100000002000000
  - positions: 030000000200000001000000
  - positions: 010000000200000003000000
  - positions: 010000000200000001000000
  - positions: 030000000200000003000000
  state: 0
  percision: 5
  useSuppliedResult: 0
  waitingForResult: 0
--- !u!114 &11400000
MonoBehaviour:
  m_ObjectHideFlags: 0
  m_CorrespondingSourceObject: {fileID: 0}
  m_PrefabInstance: {fileID: 0}
  m_PrefabAsset: {fileID: 0}
  m_GameObject: {fileID: 100002}
  m_Enabled: 1
  m_EditorHideFlags: 0
  m_Script: {fileID: 11500000, guid: 61c97c67c9a06314194cde95c5deffd1, type: 3}
  m_Name: 
  m_EditorClassIdentifier: 
  persistant: 1
  betPerLineDefaultIndex: 0
  betPerLineIndex: 0
  credits: 0
  queue: 0
  countingQueue: 0
  lastWin: 0
  betPerLine: 1
  linesPlayed: 1
  totalIn: 0
  totalOut: 0
--- !u!114 &11400004
MonoBehaviour:
  m_ObjectHideFlags: 0
  m_CorrespondingSourceObject: {fileID: 0}
  m_PrefabInstance: {fileID: 0}
  m_PrefabAsset: {fileID: 0}
  m_GameObject: {fileID: 100002}
  m_Enabled: 1
  m_EditorHideFlags: 0
  m_Script: {fileID: 11500000, guid: d05dea7b448022243bedc8256386248a, type: 3}
  m_Name: 
  m_EditorClassIdentifier: 
  showWinTime: 1
  delayBetweenShowingWins: 0.1
--- !u!114 &11400006
MonoBehaviour:
  m_ObjectHideFlags: 0
  m_CorrespondingSourceObject: {fileID: 0}
  m_PrefabInstance: {fileID: 0}
  m_PrefabAsset: {fileID: 0}
  m_GameObject: {fileID: 100002}
  m_Enabled: 1
  m_EditorHideFlags: 0
  m_Script: {fileID: 11500000, guid: 6fc23b5595a7ddf4dab0a5b8d5912bd8, type: 3}
  m_Name: 
  m_EditorClassIdentifier: 
--- !u!114 &11400008
MonoBehaviour:
  m_ObjectHideFlags: 0
  m_CorrespondingSourceObject: {fileID: 0}
  m_PrefabInstance: {fileID: 0}
  m_PrefabAsset: {fileID: 0}
  m_GameObject: {fileID: 100002}
  m_Enabled: 1
  m_EditorHideFlags: 0
  m_Script: {fileID: 11500000, guid: c11e7e483e3d28246bde7d7a6b6cf300, type: 3}
  m_Name: 
  m_EditorClassIdentifier: 
  itterations: 0
  betPerLineEditor: 0
  linesPlayedEditor: 0
  progress: 0
  totalwon: 0
  totalbet: 0
  timeToCompute: 0
  timeToComputeIterations: 0
  estimatedTimeToCompute: 0
  netPayi: 0
  variance: 0
  standardDeviation: 0
  volitility: 0
--- !u!114 &11400012
MonoBehaviour:
  m_ObjectHideFlags: 0
  m_CorrespondingSourceObject: {fileID: 0}
  m_PrefabInstance: {fileID: 0}
  m_PrefabAsset: {fileID: 0}
  m_GameObject: {fileID: 100002}
  m_Enabled: 1
  m_EditorHideFlags: 0
  m_Script: {fileID: 11500000, guid: cd6d780f4a567a849beb12a5ec526129, type: 3}
  m_Name: 
  m_EditorClassIdentifier: 
  skin: {fileID: 11400000, guid: c9133c91cd117417d0000cf8a220b639, type: 2}
--- !u!114 &11400014
MonoBehaviour:
  m_ObjectHideFlags: 0
  m_CorrespondingSourceObject: {fileID: 0}
  m_PrefabInstance: {fileID: 0}
  m_PrefabAsset: {fileID: 0}
  m_GameObject: {fileID: 100002}
  m_Enabled: 1
  m_EditorHideFlags: 0
  m_Script: {fileID: 11500000, guid: fac8f18cb2b742c4881a3e7c15092b0d, type: 3}
  m_Name: 
  m_EditorClassIdentifier: 
  linesEnabled: 1
  linesZorder: -0.001
  linesShader: {fileID: 10721, guid: 0000000000000000f000000000000000, type: 0}
  payLineWidth: 0.1
  strokeWidth: 0.075
  payLineColor1: {r: 1, g: 1, b: 1, a: 1}
  payLineColor2: {r: 1, g: 1, b: 1, a: 1}
  strokeColor: {r: 0, g: 0, b: 0, a: 1}
