%YAML 1.1
%TAG !u! tag:unity3d.com,2011:
--- !u!1 &100000
GameObject:
  m_ObjectHideFlags: 0
  m_CorrespondingSourceObject: {fileID: 0}
  m_PrefabInstance: {fileID: 0}
  m_PrefabAsset: {fileID: 0}
  serializedVersion: 6
  m_Component:
  - component: {fileID: 400000}
  - component: {fileID: 21200000}
  m_Layer: 0
  m_Name: 5ReelCage
  m_TagString: Untagged
  m_Icon: {fileID: 0}
  m_NavMeshLayer: 0
  m_StaticEditorFlags: 0
  m_IsActive: 1
--- !u!4 &400000
Transform:
  m_ObjectHideFlags: 0
  m_CorrespondingSourceObject: {fileID: 0}
  m_PrefabInstance: {fileID: 0}
  m_PrefabAsset: {fileID: 0}
  m_GameObject: {fileID: 100000}
  m_LocalRotation: {x: 0, y: 0, z: 0, w: 1}
  m_LocalPosition: {x: 0, y: 0, z: 0}
  m_LocalScale: {x: 1, y: 1, z: 1}
  m_Children: []
  m_Father: {fileID: 400002}
  m_RootOrder: 0
  m_LocalEulerAnglesHint: {x: 0, y: 0, z: 0}
--- !u!212 &21200000
SpriteRenderer:
  m_ObjectHideFlags: 0
  m_CorrespondingSourceObject: {fileID: 0}
  m_PrefabInstance: {fileID: 0}
  m_PrefabAsset: {fileID: 0}
  m_GameObject: {fileID: 100000}
  m_Enabled: 1
  m_CastShadows: 0
  m_ReceiveShadows: 0
  m_DynamicOccludee: 1
  m_MotionVectors: 1
  m_LightProbeUsage: 0
  m_ReflectionProbeUsage: 0
  m_RayTracingMode: 0
  m_RenderingLayerMask: 1
  m_RendererPriority: 0
  m_Materials:
  - {fileID: 10754, guid: 0000000000000000f000000000000000, type: 0}
  m_StaticBatchInfo:
    firstSubMesh: 0
    subMeshCount: 0
  m_StaticBatchRoot: {fileID: 0}
  m_ProbeAnchor: {fileID: 0}
  m_LightProbeVolumeOverride: {fileID: 0}
  m_ScaleInLightmap: 1
  m_ReceiveGI: 1
  m_PreserveUVs: 0
  m_IgnoreNormalsForChartDetection: 0
  m_ImportantGI: 0
  m_StitchLightmapSeams: 1
  m_SelectedEditorRenderState: 0
  m_MinimumChartSize: 4
  m_AutoUVMaxDistance: 0.5
  m_AutoUVMaxAngle: 89
  m_LightmapParameters: {fileID: 0}
  m_SortingLayerID: 0
  m_SortingLayer: 0
  m_SortingOrder: 1
  m_Sprite: {fileID: 21300000, guid: e4e79445d816fb941b48d6c0cb534700, type: 3}
  m_Color: {r: 1, g: 1, b: 1, a: 1}
  m_FlipX: 0
  m_FlipY: 0
  m_DrawMode: 0
  m_Size: {x: 1, y: 1}
  m_AdaptiveModeThreshold: 0.5
  m_SpriteTileMode: 0
  m_WasSpriteAssigned: 1
  m_MaskInteraction: 0
  m_SpriteSortPoint: 0
--- !u!1 &100002
GameObject:
  m_ObjectHideFlags: 0
  m_CorrespondingSourceObject: {fileID: 0}
  m_PrefabInstance: {fileID: 0}
  m_PrefabAsset: {fileID: 0}
  serializedVersion: 6
  m_Component:
  - component: {fileID: 400002}
  - component: {fileID: 11400002}
  - component: {fileID: 11400010}
  - component: {fileID: 11400008}
  - component: {fileID: 11400006}
  - component: {fileID: 11400004}
  - component: {fileID: 11400000}
  - component: {fileID: 11400012}
  m_Layer: 0
  m_Name: 5ReelSlot2D
  m_TagString: Untagged
  m_Icon: {fileID: 0}
  m_NavMeshLayer: 0
  m_StaticEditorFlags: 0
  m_IsActive: 1
--- !u!4 &400002
Transform:
  m_ObjectHideFlags: 0
  m_CorrespondingSourceObject: {fileID: 0}
  m_PrefabInstance: {fileID: 0}
  m_PrefabAsset: {fileID: 0}
  m_GameObject: {fileID: 100002}
  m_LocalRotation: {x: 0, y: 0, z: 0, w: 1}
  m_LocalPosition: {x: 0, y: 0, z: 0}
  m_LocalScale: {x: 1, y: 1, z: 1}
  m_Children:
  - {fileID: 400000}
  m_Father: {fileID: 0}
  m_RootOrder: 0
  m_LocalEulerAnglesHint: {x: 0, y: 0, z: 0}
--- !u!114 &11400002
MonoBehaviour:
  m_ObjectHideFlags: 0
  m_CorrespondingSourceObject: {fileID: 0}
  m_PrefabInstance: {fileID: 0}
  m_PrefabAsset: {fileID: 0}
  m_GameObject: {fileID: 100002}
  m_Enabled: 1
  m_EditorHideFlags: 0
  m_Script: {fileID: 11500000, guid: 4b106581ffc16954ea516e841078f675, type: 3}
  m_Name: 
  m_EditorClassIdentifier: 
  debugMode: 0
  activeRNG: 0
  reelHeight: 7
  reelIndent: 2
  numberOfReels: 5
  horizontalReelPaddingPercent: 0
  verticalSymbolPaddingPercent: 0
  spinTime: 1
  spinTimeIncPerReel: 0.5
  spinTimeScatterAnticipation: 0.5
  spinningSpeed: 0.060000002
  easeOutTime: 0.4
  reelEase: 24
  reelCenter: {fileID: 0}
  usePool: 1
  symbolBgPrefabs:
  - {fileID: 0}
  - {fileID: 0}
  - {fileID: 0}
  - {fileID: 0}
  - {fileID: 0}
  - {fileID: 0}
  - {fileID: 0}
  - {fileID: 0}
  - {fileID: 0}
  - {fileID: 0}
  - {fileID: 0}
  - {fileID: 0}
  symbolPrefabs:
  - {fileID: 100000, guid: c8e8fd57f712dc84eba9cd0248926686, type: 3}
  - {fileID: 100000, guid: 3392c0bec3e5ead4dacd6a4bc3df9c56, type: 3}
  - {fileID: 100000, guid: c9b43c22ad36fe34d97c9b53624d44f7, type: 3}
  - {fileID: 100000, guid: 676fc17292b50bd4eb5bb5ba8016e72b, type: 3}
  - {fileID: 100000, guid: af635a458957a8a4b9e6b4f5aff11e2d, type: 3}
  - {fileID: 100000, guid: be2b07e95925e464183350a86b8258e8, type: 3}
  - {fileID: 100000, guid: 8754412322bde0f42a90b4493bcbbff1, type: 3}
  - {fileID: 100000, guid: 5e9c45a95ee57c5459a3ba443f8c8813, type: 3}
  - {fileID: 100000, guid: 6bb2c836b90e7a94ea1cb557a322a212, type: 3}
  - {fileID: 100000, guid: e5fe14a3acb394943b1ad7a3bde2311e, type: 3}
  - {fileID: 100000, guid: 415932b5411c0964184c8eaad1b164be, type: 3}
  - {fileID: 100000, guid: b09f1bed770c82f41a3dd2023baa4f34, type: 3}
  symbolInfo:
  - active: 1
    link: 0
    linkName: 
    linked: 0
    linkPosition: 0
    isWild: 0
    clampPerReel: 0
    clampTotal: 0
    symbolIndex: 0
    perReelFrequency: 0
  - active: 1
    link: 0
    linkName: 
    linked: 0
    linkPosition: 0
    isWild: 0
    clampPerReel: 0
    clampTotal: 0
    symbolIndex: 0
    perReelFrequency: 0
  - active: 1
    link: 0
    linkName: 
    linked: 0
    linkPosition: 0
    isWild: 0
    clampPerReel: 0
    clampTotal: 0
    symbolIndex: 0
    perReelFrequency: 0
  - active: 1
    link: 0
    linkName: 
    linked: 0
    linkPosition: 0
    isWild: 0
    clampPerReel: 0
    clampTotal: 0
    symbolIndex: 0
    perReelFrequency: 0
  - active: 1
    link: 0
    linkName: 
    linked: 0
    linkPosition: 0
    isWild: 0
    clampPerReel: 0
    clampTotal: 0
    symbolIndex: 0
    perReelFrequency: 0
  - active: 1
    link: 0
    linkName: 
    linked: 0
    linkPosition: 0
    isWild: 0
    clampPerReel: 0
    clampTotal: 0
    symbolIndex: 0
    perReelFrequency: 0
  - active: 1
    link: 0
    linkName: 
    linked: 0
    linkPosition: 0
    isWild: 0
    clampPerReel: 0
    clampTotal: 0
    symbolIndex: 0
    perReelFrequency: 0
  - active: 1
    link: 0
    linkName: 
    linked: 0
    linkPosition: 0
    isWild: 0
    clampPerReel: 0
    clampTotal: 0
    symbolIndex: 0
    perReelFrequency: 0
  - active: 1
    link: 0
    linkName: 
    linked: 0
    linkPosition: 0
    isWild: 0
    clampPerReel: 0
    clampTotal: 0
    symbolIndex: 0
    perReelFrequency: 0
  - active: 1
    link: 0
    linkName: 
    linked: 0
    linkPosition: 0
    isWild: 0
    clampPerReel: 1
    clampTotal: 0
    symbolIndex: 0
    perReelFrequency: 0
  - active: 1
    link: 0
    linkName: 
    linked: 0
    linkPosition: 0
    isWild: 1
    clampPerReel: 0
    clampTotal: 0
    symbolIndex: 0
    perReelFrequency: 0
  - active: 1
    link: 0
    linkName: 
    linked: 0
    linkPosition: 0
    isWild: 0
    clampPerReel: 0
    clampTotal: 0
    symbolIndex: 0
    perReelFrequency: 0
  displayLineBoxes: 1
  lineboxPrefab: {fileID: 0}
  winboxPrefabs:
  - {fileID: 100000, guid: c51eaaddb5e63294883a3e5f9a3a0f3e, type: 3}
  - {fileID: 100000, guid: c51eaaddb5e63294883a3e5f9a3a0f3e, type: 3}
  - {fileID: 100000, guid: c51eaaddb5e63294883a3e5f9a3a0f3e, type: 3}
  - {fileID: 100000, guid: c51eaaddb5e63294883a3e5f9a3a0f3e, type: 3}
  - {fileID: 100000, guid: c51eaaddb5e63294883a3e5f9a3a0f3e, type: 3}
  - {fileID: 100000, guid: c51eaaddb5e63294883a3e5f9a3a0f3e, type: 3}
  - {fileID: 100000, guid: c51eaaddb5e63294883a3e5f9a3a0f3e, type: 3}
  - {fileID: 100000, guid: c51eaaddb5e63294883a3e5f9a3a0f3e, type: 3}
  - {fileID: 100000, guid: c51eaaddb5e63294883a3e5f9a3a0f3e, type: 3}
  - {fileID: 100000, guid: c51eaaddb5e63294883a3e5f9a3a0f3e, type: 3}
  - {fileID: 100000, guid: c51eaaddb5e63294883a3e5f9a3a0f3e, type: 3}
  - {fileID: 100000, guid: c51eaaddb5e63294883a3e5f9a3a0f3e, type: 3}
  reelFrequencies:
  - freq: 0100000001000000010000000100000001000000
  - freq: 0100000001000000010000000100000001000000
  - freq: 0100000001000000010000000100000001000000
  - freq: 0100000001000000010000000100000001000000
  - freq: 0100000001000000010000000100000001000000
  - freq: 0100000001000000010000000100000001000000
  - freq: 0100000001000000010000000100000001000000
  - freq: 0100000001000000010000000100000001000000
  - freq: 0100000001000000010000000100000001000000
  - freq: 0100000001000000010000000100000001000000
  - freq: 0100000001000000010000000100000001000000
  - freq: 0100000001000000010000000100000001000000
  symbolFrequencies: 040000000400000004000000020000000200000002000000010000000100000001000000040000000500000005000000
  symbolSetNames:
  - 1 Bar
  - 2 Bars
  - 3 Bars
  - Any Sevens
  - Aces
  - Kings
  - Queens
  - Scatter
  - Any Bars
  - Bonus
  - Wild Eights
  edsave:
    autoCompute: 0
    returnPercent: 0
    returnTotalWon: 0
    returnTotalBet: 0
    returnData: 
    returnPercentItterations: 10000
    showBasicSettingsPanel: 1
    showSymbolSetupPanel: 1
    symbolDeclarations: 0
    showOccurences: 0
    showSymbolSetsPanel: 1
    showLinesSetupPanel: 1
    showReturnPanel: 0
    showNotificationsPanel: 1
  betsPerLine:
  - value: 1
    canBet: 1
  - value: 2
    canBet: 1
  - value: 3
    canBet: 1
  symbolSets:
  - typeofSet: 0
    symbols: 00000000
    scatterCount: 0
    allowWilds: 0
  - typeofSet: 0
    symbols: 01000000
    scatterCount: 0
    allowWilds: 0
  - typeofSet: 0
    symbols: 02000000
    scatterCount: 0
    allowWilds: 0
  - typeofSet: 0
    symbols: 030000000400000005000000
    scatterCount: 0
    allowWilds: 0
  - typeofSet: 0
    symbols: 06000000
    scatterCount: 0
    allowWilds: 0
  - typeofSet: 0
    symbols: 07000000
    scatterCount: 0
    allowWilds: 0
  - typeofSet: 0
    symbols: 08000000
    scatterCount: 0
    allowWilds: 0
  - typeofSet: 1
    symbols: 09000000
    scatterCount: 0
    allowWilds: 0
  - typeofSet: 0
    symbols: 000000000100000002000000
    scatterCount: 0
    allowWilds: 0
  - typeofSet: 1
    symbols: 09000000
    scatterCount: 0
    allowWilds: 0
  - typeofSet: 0
    symbols: 0a000000
    scatterCount: 0
    allowWilds: 0
  setPays:
  - pays: 0000000000000000000000000100000002000000
    anticipate: 0000000000
    paySound: {fileID: 0}
    anticipationSound: {fileID: 0}
  - pays: 0000000000000000000000000200000003000000
    anticipate: 0000000000
    paySound: {fileID: 0}
    anticipationSound: {fileID: 0}
  - pays: 0000000000000000000000000300000004000000
    anticipate: 0101010100
    paySound: {fileID: 0}
    anticipationSound: {fileID: 0}
  - pays: 0000000000000000050000000a00000019000000
    anticipate: 0000000000
    paySound: {fileID: 0}
    anticipationSound: {fileID: 0}
  - pays: 00000000000000000a0000001900000032000000
    anticipate: 0000000000
    paySound: {fileID: 0}
    anticipationSound: {fileID: 0}
  - pays: 0000000000000000080000001400000028000000
    anticipate: 0000000000
    paySound: {fileID: 0}
    anticipationSound: {fileID: 0}
  - pays: 0000000000000000050000000f0000001e000000
    anticipate: 0000000000
    paySound: {fileID: 0}
    anticipationSound: {fileID: 0}
  - pays: 0000000000000000000000000000000000000000
    anticipate: 0000000000
    paySound: {fileID: 0}
    anticipationSound: {fileID: 0}
  - pays: 0000000000000000000000000100000002000000
    anticipate: 0000000000
    paySound: {fileID: 0}
    anticipationSound: {fileID: 0}
  - pays: 0000000000000000050000000a00000014000000
    anticipate: 0000010101
    paySound: {fileID: 0}
    anticipationSound: {fileID: 0}
  - pays: 0000000000000000000000000000000064000000
    anticipate: 0000000000
    paySound: {fileID: 0}
    anticipationSound: {fileID: 0}
  lines:
  - positions: 0300000003000000030000000300000003000000
  - positions: 0400000004000000040000000400000004000000
  - positions: 0200000002000000020000000200000002000000
  state: 0
  percision: 5
  useSuppliedResult: 0
  waitingForResult: 0
--- !u!114 &11400010
MonoBehaviour:
  m_ObjectHideFlags: 0
  m_CorrespondingSourceObject: {fileID: 0}
  m_PrefabInstance: {fileID: 0}
  m_PrefabAsset: {fileID: 0}
  m_GameObject: {fileID: 100002}
  m_Enabled: 1
  m_EditorHideFlags: 0
  m_Script: {fileID: 11500000, guid: 61c97c67c9a06314194cde95c5deffd1, type: 3}
  m_Name: 
  m_EditorClassIdentifier: 
  persistant: 0
  betPerLineDefaultIndex: 0
  betPerLineIndex: 0
  credits: 0
  queue: 0
  countingQueue: 0
  lastWin: 0
  betPerLine: 1
  linesPlayed: 1
  totalIn: 0
  totalOut: 0
--- !u!114 &11400008
MonoBehaviour:
  m_ObjectHideFlags: 0
  m_CorrespondingSourceObject: {fileID: 0}
  m_PrefabInstance: {fileID: 0}
  m_PrefabAsset: {fileID: 0}
  m_GameObject: {fileID: 100002}
  m_Enabled: 1
  m_EditorHideFlags: 0
  m_Script: {fileID: 11500000, guid: d05dea7b448022243bedc8256386248a, type: 3}
  m_Name: 
  m_EditorClassIdentifier: 
  showWinTime: 2
  delayBetweenShowingWins: 0.2
--- !u!114 &11400006
MonoBehaviour:
  m_ObjectHideFlags: 0
  m_CorrespondingSourceObject: {fileID: 0}
  m_PrefabInstance: {fileID: 0}
  m_PrefabAsset: {fileID: 0}
  m_GameObject: {fileID: 100002}
  m_Enabled: 1
  m_EditorHideFlags: 0
  m_Script: {fileID: 11500000, guid: 6fc23b5595a7ddf4dab0a5b8d5912bd8, type: 3}
  m_Name: 
  m_EditorClassIdentifier: 
--- !u!114 &11400004
MonoBehaviour:
  m_ObjectHideFlags: 0
  m_CorrespondingSourceObject: {fileID: 0}
  m_PrefabInstance: {fileID: 0}
  m_PrefabAsset: {fileID: 0}
  m_GameObject: {fileID: 100002}
  m_Enabled: 1
  m_EditorHideFlags: 0
  m_Script: {fileID: 11500000, guid: c11e7e483e3d28246bde7d7a6b6cf300, type: 3}
  m_Name: 
  m_EditorClassIdentifier: 
  itterations: 0
  betPerLineEditor: 0
  linesPlayedEditor: 0
  progress: 0
  totalwon: 0
  totalbet: 0
  timeToCompute: 0
  timeToComputeIterations: 0
  estimatedTimeToCompute: 0
  netPayi: 0
  variance: 0
  standardDeviation: 0
  volitility: 0
--- !u!114 &11400000
MonoBehaviour:
  m_ObjectHideFlags: 0
  m_CorrespondingSourceObject: {fileID: 0}
  m_PrefabInstance: {fileID: 0}
  m_PrefabAsset: {fileID: 0}
  m_GameObject: {fileID: 100002}
  m_Enabled: 1
  m_EditorHideFlags: 0
  m_Script: {fileID: 11500000, guid: cd6d780f4a567a849beb12a5ec526129, type: 3}
  m_Name: 
  m_EditorClassIdentifier: 
  skin: {fileID: 11400000, guid: c9133c91cd117417d0000cf8a220b639, type: 2}
--- !u!114 &11400012
MonoBehaviour:
  m_ObjectHideFlags: 0
  m_CorrespondingSourceObject: {fileID: 0}
  m_PrefabInstance: {fileID: 0}
  m_PrefabAsset: {fileID: 0}
  m_GameObject: {fileID: 100002}
  m_Enabled: 1
  m_EditorHideFlags: 0
  m_Script: {fileID: 11500000, guid: fac8f18cb2b742c4881a3e7c15092b0d, type: 3}
  m_Name: 
  m_EditorClassIdentifier: 
  linesEnabled: 1
  linesZorder: -0.001
  linesShader: {fileID: 10721, guid: 0000000000000000f000000000000000, type: 0}
  payLineWidth: 0.1
  strokeWidth: 0.075
  payLineColor1: {r: 1, g: 1, b: 1, a: 1}
  payLineColor2: {r: 1, g: 1, b: 1, a: 1}
  strokeColor: {r: 0, g: 0, b: 0, a: 1}
